{
  "images": [
    {
      "id": 10998979,
      "name": "618.0.0 (alpha)",
      "distribution": "CoreOS",
      "slug": "coreos-alpha",
      "public": true,
      "regions": [
        "nyc1",
        "ams1",
        "sfo1",
        "nyc2",
        "ams2",
        "lon1",
        "nyc3",
        "ams3"
      ],
      "created_at": "2015-03-13T16:21:58Z",
      "min_disk_size": 20,
      "type": "snapshot"
    },
    {
      "id": 11065980,
      "name": "607.0.0 (stable)",
      "distribution": "CoreOS",
      "slug": "coreos-stable",
      "public": true,
      "regions": [
        "nyc1",
        "ams1",
        "sfo1",
        "nyc2",
        "ams2",
        "sgp1",
        "lon1",
        "nyc3",
        "ams3"
      ],
      "created_at": "2015-03-18T17:52:45Z",
      "min_disk_size": 20,
      "type": "snapshot"
    },
    {
      "id": 11065981,
      "name": "612.1.0 (beta)",
      "distribution": "CoreOS",
      "slug": "coreos-beta",
      "public": true,
      "regions": [
        "sfo1",
        "nyc2",
        "ams2",
        "sgp1",
        "lon1",
        "nyc3",
        "ams3"
      ],
      "created_at": "2015-03-18T17:53:26Z",
      "min_disk_size": 20,
      "type": "snapshot"
    },
    {
      "id": 6370882,
      "name": "20 x64",
      "distribution": "Fedora",
      "slug": "fedora-20-x64",
      "public": true,
      "regions": [
        "nyc1",
        "ams1",
        "sfo1",
        "nyc2",
        "ams2",
        "sgp1",
        "lon1",
        "nyc3",
        "ams3"
      ],
      "created_at": "2014-09-26T15:29:01Z",
      "min_disk_size": 20,
      "type": "snapshot"
    },
    {
      "id": 6370885,
      "name": "20 x32",
      "distribution": "Fedora",
      "slug": "fedora-20-x32",
      "public": true,
      "regions": [
        "nyc1",
        "ams1",
        "sfo1",
        "nyc2",
        "ams2",
        "sgp1",
        "lon1",
        "nyc3",
        "ams3"
      ],
      "created_at": "2014-09-26T15:29:18Z",
      "min_disk_size": 20,
      "type": "snapshot"
    },
    {
      "id": 6370968,
      "name": "19 x64",
      "distribution": "Fedora",
      "slug": "fedora-19-x64",
      "public": true,
      "regions": [
        "nyc1",
        "ams1",
        "sfo1",
        "nyc2",
        "ams2",
        "sgp1",
        "lon1",
        "nyc3",
        "ams3"
      ],
      "created_at": "2014-09-26T15:33:05Z",
      "min_disk_size": 20,
      "type": "snapshot"
    },
    {
      "id": 6370969,
      "name": "19 x32",
      "distribution": "Fedora",
      "slug": "fedora-19-x32",
      "public": true,
      "regions": [
        "nyc1",
        "ams1",
        "sfo1",
        "nyc2",
        "ams2",
        "sgp1",
        "lon1",
        "nyc3",
        "ams3"
      ],
      "created_at": "2014-09-26T15:33:39Z",
      "min_disk_size": 20,
      "type": "snapshot"
    },
    {
      "id": 6372321,
      "name": "5.10 x64",
      "distribution": "CentOS",
      "slug": "centos-5-8-x64",
      "public": true,
      "regions": [
        "nyc1",
        "ams1",
        "sfo1",
        "nyc2",
        "ams2",
        "sgp1",
        "lon1",
        "nyc3",
        "ams3"
      ],
      "created_at": "2014-09-26T16:40:18Z",
      "min_disk_size": 20,
      "type": "snapshot"
    },
    {
      "id": 6372425,
      "name": "5.10 x32",
      "distribution": "CentOS",
      "slug": "centos-5-8-x32",
      "public": true,
      "regions": [
        "nyc1",
        "ams1",
        "sfo1",
        "nyc2",
        "ams2",
        "sgp1",
        "lon1",
        "nyc3",
        "ams3"
      ],
      "created_at": "2014-09-26T16:45:29Z",
      "min_disk_size": 20,
      "type": "snapshot"
    },
    {
      "id": 6372581,
      "name": "6.0 x64",
      "distribution": "Debian",
      "slug": "debian-6-0-x64",
      "public": true,
      "regions": [
        "nyc1",
        "ams1",
        "sfo1",
        "nyc2",
        "ams2",
        "sgp1",
        "lon1",
        "nyc3",
        "ams3"
      ],
      "created_at": "2014-09-26T16:56:00Z",
      "min_disk_size": 20,
      "type": "snapshot"
    },
    {
      "id": 6372662,
      "name": "6.0 x32",
      "distribution": "Debian",
      "slug": "debian-6-0-x32",
      "public": true,
      "regions": [
        "nyc1",
        "ams1",
        "sfo1",
        "nyc2",
        "ams2",
        "sgp1",
        "lon1",
        "nyc3",
        "ams3"
      ],
      "created_at": "2014-09-26T17:00:21Z",
      "min_disk_size": 20,
      "type": "snapshot"
    },
    {
      "id": 9640922,
      "name": "21 x64",
      "distribution": "Fedora",
      "slug": "fedora-21-x64",
      "public": true,
      "regions": [
        "nyc1",
        "ams1",
        "sfo1",
        "nyc2",
        "ams2",
        "sgp1",
        "lon1",
        "nyc3",
        "ams3"
      ],
      "created_at": "2015-01-02T19:06:09Z",
      "min_disk_size": 20,
      "type": "snapshot"
    },
    {
      "id": 9801948,
      "name": "14.04 x32",
      "distribution": "Ubuntu",
      "slug": "ubuntu-14-04-x32",
      "public": true,
      "regions": [
        "nyc1",
        "ams1",
        "sfo1",
        "nyc2",
        "ams2",
        "sgp1",
        "lon1",
        "nyc3",
        "ams3"
      ],
      "created_at": "2015-01-08T18:40:58Z",
      "min_disk_size": 20,
      "type": "snapshot"
    },
    {
      "id": 9801950,
      "name": "14.04 x64",
      "distribution": "Ubuntu",
      "slug": "ubuntu-14-04-x64",
      "public": true,
      "regions": [
        "nyc1",
        "ams1",
        "sfo1",
        "nyc2",
        "ams2",
        "sgp1",
        "lon1",
        "nyc3",
        "ams3"
      ],
      "created_at": "2015-01-08T18:41:13Z",
      "min_disk_size": 20,
      "type": "snapshot"
    },
    {
      "id": 9801951,
      "name": "14.10 x32",
      "distribution": "Ubuntu",
      "slug": "ubuntu-14-10-x32",
      "public": true,
      "regions": [
        "nyc1",
        "ams1",
        "sfo1",
        "nyc2",
        "ams2",
        "sgp1",
        "lon1",
        "nyc3",
        "ams3"
      ],
      "created_at": "2015-01-08T18:41:22Z",
      "min_disk_size": 20,
      "type": "snapshot"
    },
    {
      "id": 9801954,
      "name": "14.10 x64",
      "distribution": "Ubuntu",
      "slug": "ubuntu-14-10-x64",
      "public": true,
      "regions": [
        "nyc1",
        "ams1",
        "sfo1",
        "nyc2",
        "ams2",
        "sgp1",
        "lon1",
        "nyc3",
        "ams3"
      ],
      "created_at": "2015-01-08T18:41:29Z",
      "min_disk_size": 20,
      "type": "snapshot"
    },
    {
      "id": 10144573,
      "name": "10.1",
      "distribution": "FreeBSD",
      "slug": "freebsd-10-1-x64",
      "public": true,
      "regions": [
        "sfo1",
        "ams2",
        "sgp1",
        "lon1",
        "nyc3",
        "ams3"
      ],
      "created_at": "2015-01-20T20:04:34Z",
      "min_disk_size": 20,
      "type": "snapshot"
    },
    {
      "id": 10321756,
      "name": "12.04.5 x64",
      "distribution": "Ubuntu",
      "slug": "ubuntu-12-04-x64",
      "public": true,
      "regions": [
        "nyc1",
        "ams1",
        "sfo1",
        "nyc2",
        "ams2",
        "sgp1",
        "lon1",
        "nyc3",
        "ams3"
      ],
      "created_at": "2015-01-28T15:50:38Z",
      "min_disk_size": 20,
      "type": "snapshot"
    },
    {
      "id": 10321777,
      "name": "12.04.5 x32",
      "distribution": "Ubuntu",
      "slug": "ubuntu-12-04-x32",
      "public": true,
      "regions": [
        "nyc1",
        "ams1",
        "sfo1",
        "nyc2",
        "ams2",
        "sgp1",
        "lon1",
        "nyc3",
        "ams3"
      ],
      "created_at": "2015-01-28T15:54:17Z",
      "min_disk_size": 20,
      "type": "snapshot"
    },
    {
      "id": 10321819,
      "name": "10.04 x64",
      "distribution": "Ubuntu",
      "slug": "ubuntu-10-04-x64",
      "public": true,
      "regions": [
        "nyc1",
        "ams1",
        "sfo1",
        "nyc2",
        "ams2",
        "sgp1",
        "lon1",
        "nyc3",
        "ams3"
      ],
      "created_at": "2015-01-28T15:57:42Z",
      "min_disk_size": 20,
      "type": "snapshot"
    }
  ],
  "links": {
    "pages": {
      "last": "https://api.digitalocean.com/v2/images?page=3",
      "next": "https://api.digitalocean.com/v2/images?page=2"
    }
  },
  "meta": {
    "total": 48
  }
}
